<?xml version="1.0" standalone="no"?>

<svg xmlns="http://www.w3.org/2000/svg" viewBox="0 0 1440 320">

    <path fill="#0099ff" fill-opacity="1" d="M0,128L48,112C96,96,192,64,288,53.3C384,43,480,53,576,
        101.3C672,149,768,235,864,229.3C960,224,1056,128,1152,80C1248,32,1344,32,1392,32L1440,32L1440,
        320L1392,320C1344,320,1248,320,1152,320C1056,320,960,320,864,320C768,320,672,320,576,320C480,320,
        384,320,288,320C192,320,96,320,48,320L0,320Z">
    </path>
    
</svg>