<?xml version="1.0" standalone="no"?>
<svg xmlns="http://www.w3.org/2000/svg" viewBox="0 0 1440 320">

    <path fill="#0099ff" fill-opacity="1" d="M0,128L48,154.7C96,181,192,235,288,261.3C384,288,480,288,576,
        240C672,192,768,96,864,64C960,32,1056,64,1152,117.3C1248,171,1344,245,1392,282.7L1440,320L1440,
        320L1392,320C1344,320,1248,320,1152,320C1056,320,960,320,864,320C768,320,672,320,576,320C480,320,
        384,320,288,320C192,320,96,320,48,320L0,320Z">
    </path>

</svg>